3,3,8,bfs,173,8
3,3,8,dfs,1570,1192
3,3,8,iddfs,396,8
3,3,8,astar,48,8
3,3,18,bfs,2021,16
3,3,18,dfs,624,576
3,3,18,iddfs,5025,16
3,3,18,astar,1404,18
3,3,10,bfs,281,10
3,3,10,dfs,1542,1138
3,3,10,iddfs,836,10
3,3,10,astar,105,10
3,3,4,bfs,26,4
3,3,4,dfs,1514,1154
3,3,4,iddfs,37,4
3,3,4,astar,6,4
3,3,6,bfs,58,6
3,3,6,dfs,982,834
3,3,6,iddfs,199,6
3,3,6,astar,25,6
3,3,14,bfs,1544,14
3,3,14,dfs,806,716
3,3,14,iddfs,2609,14
3,3,14,astar,638,14
3,3,16,bfs,2087,16
3,3,16,dfs,1952,1166
3,3,16,iddfs,5773,18
3,3,16,astar,978,16
3,3,12,bfs,826,12
3,3,12,dfs,2265,874
3,3,12,iddfs,1696,12
3,3,12,astar,382,12
3,2,2,bfs,10,2
3,2,2,dfs,80,76
3,2,2,iddfs,11,2
3,2,2,astar,3,2
3,2,8,bfs,79,8
3,2,8,dfs,40,38
3,2,8,iddfs,269,8
3,2,8,astar,47,8
3,2,10,bfs,164,10
3,2,10,dfs,67,58
3,2,10,iddfs,2942,20
3,2,10,astar,93,10
3,2,4,bfs,30,4
3,2,4,dfs,5,4
3,2,4,iddfs,30,4
3,2,4,astar,7,4
3,2,6,bfs,48,6
3,2,6,dfs,31,24
3,2,6,iddfs,103,6
3,2,6,astar,27,6
3,2,14,bfs,436,14
3,2,14,dfs,47,38
3,2,14,iddfs,2306,18
3,2,14,astar,276,14
3,2,12,bfs,338,12
3,2,12,dfs,49,42
3,2,12,iddfs,1929,16
3,2,12,astar,168,12
4,3,8,bfs,471,8
4,3,8,dfs,21890,16942
4,3,8,iddfs,3612,12
4,3,8,astar,47,8
4,3,18,bfs,11676,18
4,3,18,dfs,2221,2158
4,3,18,iddfs,42850,28
4,3,18,astar,4341,18
4,3,10,bfs,1739,10
4,3,10,dfs,2169,2102
4,3,10,iddfs,9259,14
4,3,10,astar,233,10
4,3,24,bfs,30308,24
4,3,24,dfs,3460,3342
4,3,24,iddfs,534808,58
4,3,24,astar,16927,24
4,3,22,bfs,15995,22
4,3,22,dfs,10577,9726
4,3,22,iddfs,117294,36
4,3,22,astar,14678,26
4,3,6,bfs,84,6
4,3,6,dfs,6397,6130
4,3,6,iddfs,211,6
4,3,6,astar,18,6
4,3,30,bfs,31618,30
4,3,30,dfs,11093,10156
4,3,30,iddfs,680131,68
4,3,30,astar,16158,30
4,3,14,bfs,5747,14
4,3,14,dfs,28426,16418
4,3,14,iddfs,21158,18
4,3,14,astar,2147,14
4,3,16,bfs,8581,16
4,3,16,dfs,34722,10844
4,3,16,iddfs,15560,18
4,3,16,astar,5545,18
4,3,26,bfs,24638,26
4,3,26,dfs,24776,17478
4,3,26,iddfs,187413,36
4,3,26,astar,17431,28
4,3,12,bfs,2970,12
4,3,12,dfs,4989,4812
4,3,12,iddfs,8187,14
4,3,12,astar,1153,12
4,3,20,bfs,5684,20
4,3,20,dfs,3612,3498
4,3,20,iddfs,16872,24
4,3,20,astar,2468,22
4,2,8,bfs,412,8
4,2,8,dfs,424,384
4,2,8,iddfs,617,8
4,2,8,astar,67,8
4,2,18,bfs,1961,18
4,2,18,dfs,516,476
4,2,18,iddfs,23402,34
4,2,18,astar,1108,20
4,2,10,bfs,499,10
4,2,10,dfs,1474,1028
4,2,10,iddfs,3266,14
4,2,10,astar,133,10
4,2,22,bfs,2512,22
4,2,22,dfs,427,388
4,2,22,iddfs,34424,46
4,2,22,astar,1717,24
4,2,6,bfs,95,6
4,2,6,dfs,1451,1082
4,2,6,iddfs,282,6
4,2,6,astar,21,6
4,2,14,bfs,328,14
4,2,14,dfs,279,272
4,2,14,iddfs,1955,20
4,2,14,astar,110,14
4,2,16,bfs,1370,16
4,2,16,dfs,506,466
4,2,16,iddfs,9372,24
4,2,16,astar,602,16
4,2,12,bfs,478,12
4,2,12,dfs,576,536
4,2,12,iddfs,1183,12
4,2,12,astar,123,12
4,2,20,bfs,2095,20
4,2,20,dfs,149,128
4,2,20,iddfs,13289,28
4,2,20,astar,876,20
4,4,18,bfs,20015,18
4,4,18,dfs,117643,110160
4,4,18,iddfs,67726,24
4,4,18,astar,5633,20
4,4,24,bfs,110440,24
4,4,24,dfs,10626,10384
4,4,30,bfs,231926,30
4,4,30,dfs,25165,24506
4,4,24,iddfs,458545,36
4,4,24,astar,33159,26
4,4,22,bfs,87572,22
4,4,22,dfs,16820,16398
4,4,22,iddfs,313391,30
4,4,22,astar,17815,22
4,4,30,iddfs,1111388,48
4,4,32,bfs,376654,32
4,4,30,astar,65439,30
4,4,32,dfs,53895,52020
4,4,14,bfs,11321,14
4,4,14,dfs,38673,37514
4,4,14,iddfs,13833,14
4,4,14,astar,2721,14
4,4,16,bfs,18297,16
4,4,16,dfs,24334,23648
4,4,16,iddfs,17294,16
4,4,16,astar,4236,16
4,4,26,bfs,154152,26
4,4,26,dfs,8812,8614
4,4,26,iddfs,286286,28
4,4,26,astar,46117,26
4,4,12,bfs,7352,12
4,4,12,dfs,27590,26860
4,4,12,iddfs,29374,12
4,4,12,astar,634,12
4,4,28,bfs,191247,28
4,4,28,dfs,3490,3404
4,4,32,iddfs,1626493,46
4,4,32,astar,129764,32
4,4,28,iddfs,831967,44
4,4,28,astar,95448,30
4,4,34,bfs,381487,34
4,4,34,dfs,143500,132150
4,4,34,iddfs,3348083,62
4,4,34,astar,257360,38
4,4,20,bfs,103345,20
4,4,20,dfs,143335,132132
4,4,20,iddfs,212504,28
4,4,20,astar,24091,20
5,4,38,bfs,2394183,38
5,4,40,bfs,3208594,38
5,4,40,dfs,1008754,964064
5,4,38,dfs,3153672,2437592
5,4,40,bfs,3208594,38
5,4,40,astar,1515418,40
5,4,38,dfs,3153672,2437592
5,4,40,dfs,1008754,964064
5,4,38,bfs,2394183,38
5,4,30,bfs,1875691,30
5,4,38,astar,616876,38
5,4,30,astar,629354,30
5,4,52,dfs,392671,383066
5,4,52,bfs,5556082,52
5,4,30,dfs,3142742,2436504
5,4,16,bfs,39708,16
5,4,16,astar,9981,16
5,4,52,astar,3231918,52
5,4,16,dfs,1731757,1581752
5,4,26,bfs,366704,24
5,4,26,astar,125925,26
5,4,18,dfs,1664163,1528926
5,4,18,bfs,71518,18
5,4,18,astar,12765,18
5,4,44,dfs,1948514,1751284
5,4,26,dfs,3089719,2413750
5,4,42,bfs,2321145,38
5,4,44,bfs,4170870,42
5,4,42,astar,1401253,42
5,4,42,dfs,1334669,1252380
5,4,44,astar,2180318,44
5,4,28,bfs,878255,28
5,4,28,astar,152717,28
5,4,36,dfs,1681575,1540904
5,4,28,dfs,1718652,1569552
5,4,36,bfs,3644348,36
5,4,36,astar,1337278,36
5,4,54,bfs,5429867,52
5,4,48,dfs,2222996,1943374
5,4,54,astar,3353611,54
5,4,48,bfs,2493806,46
5,4,48,astar,1148234,48
5,4,54,dfs,1638663,1507218
5,4,24,dfs,1246495,1174630
5,4,24,bfs,1062366,24
5,4,24,astar,196915,24
5,4,22,dfs,1073325,1020742
5,4,46,bfs,4386977,46
5,4,22,bfs,825044,22
